Red Hat Enterprise Linux Server release 7.6 (Maipo)
aws-cli/1.16.162 Python/2.7.5 Linux/3.10.0-862.11.6.el7.x86_64 botocore/1.12.152
acl-2.2.51-14.el7.x86_64
alsa-lib-1.1.6-2.el7.x86_64
amazon-ssm-agent-2.3.612.0-1.x86_64
atk-2.28.1-1.el7.x86_64
audit-2.8.4-4.el7.x86_64
audit-libs-2.8.4-4.el7.x86_64
audit-libs-python-2.8.4-4.el7.x86_64
authconfig-6.2.8-30.el7.x86_64
autogen-libopts-5.18-5.el7.x86_64
avahi-libs-0.6.31-19.el7.x86_64
aws-amitools-ec2-1.5.13-0.el7.noarch
aws-apitools-as-1.0.61.6-2.el7.noarch
aws-apitools-cfn-1.0.12-2.el7.noarch
aws-apitools-common-1.1.0-2.el7.noarch
aws-apitools-ec2-1.7.3.0-2.el7.noarch
aws-apitools-elb-1.0.35.0-2.el7.noarch
aws-apitools-iam-1.5.0-1.2.el7.noarch
aws-apitools-mon-1.0.20.0-2.el7.noarch
aws-apitools-rds-1.19.002-1.0.el7.noarch
aws-cfn-bootstrap-1.4-31.el7.noarch
aws-scripts-ses-2014.05.14-1.2.el7.noarch
basesystem-10.0-7.el7.noarch
bash-4.2.46-31.el7.x86_64
bind-libs-lite-9.9.4-73.el7_6.x86_64
bind-license-9.9.4-73.el7_6.noarch
binutils-2.27-34.base.el7.x86_64
btrfs-progs-4.9.1-1.el7.x86_64
bzip2-libs-1.0.6-13.el7.x86_64
ca-certificates-2018.2.22-70.0.el7_5.noarch
cairo-1.15.12-3.el7.x86_64
checkpolicy-2.5-8.el7.x86_64
chkconfig-1.7.4-1.el7.x86_64
chrony-3.2-2.el7.x86_64
cloud-init-18.2-1.el7_6.2.x86_64
cloud-utils-growpart-0.29-2.el7.noarch
copy-jdk-configs-3.3-10.el7_5.noarch
coreutils-8.22-23.el7.x86_64
cpio-2.11-27.el7.x86_64
cracklib-2.9.0-11.el7.x86_64
cracklib-dicts-2.9.0-11.el7.x86_64
cronie-1.4.11-20.el7_6.x86_64
cronie-anacron-1.4.11-20.el7_6.x86_64
crontabs-1.11-6.20121102git.el7.noarch
cryptsetup-libs-2.0.3-3.el7.x86_64
cups-libs-1.6.3-35.el7.x86_64
curl-7.29.0-51.el7.x86_64
cyrus-sasl-lib-2.1.26-23.el7.x86_64
dbus-1.10.24-13.el7_6.x86_64
dbus-glib-0.100-7.el7.x86_64
dbus-libs-1.10.24-13.el7_6.x86_64
dbus-python-1.1.1-9.el7.x86_64
dejavu-fonts-common-2.33-6.el7.noarch
dejavu-sans-fonts-2.33-6.el7.noarch
desktop-file-utils-0.23-1.el7.x86_64
device-mapper-1.02.149-10.el7_6.7.x86_64
device-mapper-event-1.02.149-10.el7_6.7.x86_64
device-mapper-event-libs-1.02.149-10.el7_6.7.x86_64
device-mapper-libs-1.02.149-10.el7_6.7.x86_64
device-mapper-persistent-data-0.7.3-3.el7.x86_64
dhclient-4.2.5-68.el7_5.1.x86_64
dhcp-common-4.2.5-68.el7_5.1.x86_64
dhcp-libs-4.2.5-68.el7_5.1.x86_64
diffutils-3.3-4.el7.x86_64
dmidecode-3.1-2.el7.x86_64
dracut-033-554.el7.x86_64
dracut-config-generic-033-554.el7.x86_64
dracut-config-rescue-033-554.el7.x86_64
dracut-fips-033-554.el7.x86_64
dracut-network-033-554.el7.x86_64
e2fsprogs-1.42.9-13.el7.x86_64
e2fsprogs-libs-1.42.9-13.el7.x86_64
ebtables-2.0.10-16.el7.x86_64
ec2-instance-connect-1.0-3.el7.noarch
elfutils-default-yama-scope-0.172-2.el7.noarch
elfutils-libelf-0.172-2.el7.x86_64
elfutils-libs-0.172-2.el7.x86_64
emacs-filesystem-24.3-22.el7.noarch
epel-release-7-11.noarch
ethtool-4.8-9.el7.x86_64
expat-2.1.0-10.el7_3.x86_64
file-5.11-35.el7.x86_64
file-libs-5.11-35.el7.x86_64
filesystem-3.2-25.el7.x86_64
findutils-4.5.11-6.el7.x86_64
fipscheck-1.4.1-6.el7.x86_64
fipscheck-lib-1.4.1-6.el7.x86_64
firewalld-0.5.3-5.el7.noarch
firewalld-filesystem-0.5.3-5.el7.noarch
fontconfig-2.13.0-4.3.el7.x86_64
fontpackages-filesystem-1.44-8.el7.noarch
freetype-2.8-12.el7_6.1.x86_64
fribidi-1.0.2-1.el7.x86_64
gawk-4.0.2-4.el7_3.1.x86_64
gdbm-1.10-8.el7.x86_64
gdisk-0.8.10-2.el7.x86_64
gdk-pixbuf2-2.36.12-3.el7.x86_64
GeoIP-1.5.0-13.el7.x86_64
gettext-0.19.8.1-2.el7.x86_64
gettext-libs-0.19.8.1-2.el7.x86_64
giflib-4.1.6-9.el7.x86_64
glib2-2.56.1-2.el7.x86_64
glibc-2.17-260.el7_6.5.x86_64
glibc-common-2.17-260.el7_6.5.x86_64
gmp-6.0.0-15.el7.x86_64
gnupg2-2.0.22-5.el7_5.x86_64
gobject-introspection-1.56.1-1.el7.x86_64
gpgme-1.3.2-5.el7.x86_64
gpg-pubkey-2fa658e0-45700c69
gpg-pubkey-352c64e5-52ae6884
gpg-pubkey-fd431d51-4ae0493b
graphite2-1.3.10-1.el7_3.x86_64
grep-2.20-3.el7.x86_64
groff-base-1.22.2-8.el7.x86_64
grub2-2.02-0.76.el7.1.x86_64
grub2-common-2.02-0.76.el7.1.noarch
grub2-pc-2.02-0.76.el7.1.x86_64
grub2-pc-modules-2.02-0.76.el7.1.noarch
grub2-tools-2.02-0.76.el7.1.x86_64
grub2-tools-extra-2.02-0.76.el7.1.x86_64
grub2-tools-minimal-2.02-0.76.el7.1.x86_64
grubby-8.28-25.el7.x86_64
gtk2-2.24.31-1.el7.x86_64
gtk-update-icon-cache-3.22.30-3.el7.x86_64
gzip-1.5-10.el7.x86_64
hardlink-1.0-19.el7.x86_64
harfbuzz-1.7.5-2.el7.x86_64
hicolor-icon-theme-0.12-7.el7.noarch
hmaccalc-0.9.13-4.el7.x86_64
hostname-3.13-3.el7.x86_64
hwdata-0.252-9.1.el7.x86_64
info-5.1-5.el7.x86_64
initscripts-9.49.46-1.el7.x86_64
iproute-4.11.0-14.el7_6.2.x86_64
ipset-6.38-3.el7_6.x86_64
ipset-libs-6.38-3.el7_6.x86_64
iptables-1.4.21-28.el7.x86_64
iptables-services-1.4.21-28.el7.x86_64
iptables-utils-1.4.21-28.el7.x86_64
iputils-20160308-10.el7.x86_64
irqbalance-1.0.7-11.el7.x86_64
iwl7265-firmware-22.0.7.0-69.el7.noarch
jansson-2.10-1.el7.x86_64
jasper-libs-1.900.1-33.el7.x86_64
java-1.8.0-openjdk-1.8.0.212.b04-0.el7_6.x86_64
java-1.8.0-openjdk-headless-1.8.0.212.b04-0.el7_6.x86_64
javapackages-tools-3.4.1-11.el7.noarch
jbigkit-libs-2.0-11.el7.x86_64
json-c-0.11-4.el7_0.x86_64
kbd-1.15.5-15.el7.x86_64
kbd-legacy-1.15.5-15.el7.noarch
kbd-misc-1.15.5-15.el7.noarch
kernel-3.10.0-957.12.2.el7.x86_64
kernel-tools-3.10.0-957.12.2.el7.x86_64
kernel-tools-libs-3.10.0-957.12.2.el7.x86_64
kexec-tools-2.0.15-21.el7_6.3.x86_64
keyutils-libs-1.5.8-3.el7.x86_64
kmod-20-23.el7.x86_64
kmod-libs-20-23.el7.x86_64
kpartx-0.4.9-123.el7.x86_64
krb5-libs-1.15.1-37.el7_6.x86_64
less-458-9.el7.x86_64
libacl-2.2.51-14.el7.x86_64
libaio-0.3.109-13.el7.x86_64
libassuan-2.1.0-3.el7.x86_64
libattr-2.4.46-13.el7.x86_64
libblkid-2.23.2-59.el7_6.1.x86_64
libcap-2.22-9.el7.x86_64
libcap-ng-0.7.5-4.el7.x86_64
libcgroup-0.41-20.el7.x86_64
libcom_err-1.42.9-13.el7.x86_64
libcroco-0.6.12-4.el7.x86_64
libcurl-7.29.0-51.el7.x86_64
libdaemon-0.14-7.el7.x86_64
libdb-5.3.21-24.el7.x86_64
libdb-utils-5.3.21-24.el7.x86_64
libdrm-2.4.91-3.el7.x86_64
libedit-3.0-12.20121213cvs.el7.x86_64
libestr-0.1.9-2.el7.x86_64
libfastjson-0.99.4-3.el7.x86_64
libffi-3.0.13-18.el7.x86_64
libfontenc-1.1.3-3.el7.x86_64
libgcc-4.8.5-36.el7_6.2.x86_64
libgcrypt-1.5.3-14.el7.x86_64
libglvnd-1.0.1-0.8.git5baa1e5.el7.x86_64
libglvnd-egl-1.0.1-0.8.git5baa1e5.el7.x86_64
libglvnd-glx-1.0.1-0.8.git5baa1e5.el7.x86_64
libgomp-4.8.5-36.el7_6.2.x86_64
libgpg-error-1.12-3.el7.x86_64
libgudev1-219-62.el7_6.6.x86_64
libICE-1.0.9-9.el7.x86_64
libidn-1.28-4.el7.x86_64
libjpeg-turbo-1.2.90-6.el7.x86_64
libmnl-1.0.3-7.el7.x86_64
libmount-2.23.2-59.el7_6.1.x86_64
libndp-1.2-7.el7.x86_64
libnetfilter_conntrack-1.0.6-1.el7_3.x86_64
libnfnetlink-1.0.1-4.el7.x86_64
libnl-1.1.4-3.el7.x86_64
libnl3-3.2.28-4.el7.x86_64
libnl3-cli-3.2.28-4.el7.x86_64
libpciaccess-0.14-1.el7.x86_64
libpipeline-1.2.3-3.el7.x86_64
libpng-1.5.13-7.el7_2.x86_64
libpwquality-1.2.3-5.el7.x86_64
libseccomp-2.3.1-3.el7.x86_64
libselinux-2.5-14.1.el7.x86_64
libselinux-python-2.5-14.1.el7.x86_64
libselinux-utils-2.5-14.1.el7.x86_64
libsemanage-2.5-14.el7.x86_64
libsemanage-python-2.5-14.el7.x86_64
libsepol-2.5-10.el7.x86_64
libSM-1.2.2-2.el7.x86_64
libsmartcols-2.23.2-59.el7_6.1.x86_64
libss-1.42.9-13.el7.x86_64
libssh2-1.4.3-12.el7_6.2.x86_64
libstdc++-4.8.5-36.el7_6.2.x86_64
libsysfs-2.1.0-16.el7.x86_64
libtasn1-4.10-1.el7.x86_64
libteam-1.27-5.el7.x86_64
libthai-0.1.14-9.el7.x86_64
libtiff-4.0.3-27.el7_3.x86_64
libunistring-0.9.3-9.el7.x86_64
libuser-0.60-9.el7.x86_64
libutempter-1.1.6-4.el7.x86_64
libuuid-2.23.2-59.el7_6.1.x86_64
libverto-0.2.5-4.el7.x86_64
libwayland-client-1.15.0-1.el7.x86_64
libwayland-server-1.15.0-1.el7.x86_64
libX11-1.6.5-2.el7.x86_64
libX11-common-1.6.5-2.el7.noarch
libXau-1.0.8-2.1.el7.x86_64
libxcb-1.13-1.el7.x86_64
libXcomposite-0.4.4-4.1.el7.x86_64
libXcursor-1.1.15-1.el7.x86_64
libXdamage-1.1.4-4.1.el7.x86_64
libXext-1.3.3-3.el7.x86_64
libXfixes-5.0.3-1.el7.x86_64
libXft-2.3.2-2.el7.x86_64
libXi-1.7.9-1.el7.x86_64
libXinerama-1.1.3-2.1.el7.x86_64
libxml2-2.9.1-6.el7_2.3.x86_64
libxml2-python-2.9.1-6.el7_2.3.x86_64
libXrandr-1.5.1-2.el7.x86_64
libXrender-0.9.10-1.el7.x86_64
libxshmfence-1.2-1.el7.x86_64
libxslt-1.1.28-5.el7.x86_64
libXtst-1.2.3-1.el7.x86_64
libXxf86vm-1.1.4-1.el7.x86_64
libyaml-0.1.4-11.el7_0.x86_64
linux-firmware-20180911-69.git85c5d90.el7.noarch
lksctp-tools-1.0.17-2.el7.x86_64
logrotate-3.8.6-17.el7.x86_64
lshw-B.02.18-12.el7.x86_64
lua-5.1.4-15.el7.x86_64
lvm2-2.02.180-10.el7_6.7.x86_64
lvm2-libs-2.02.180-10.el7_6.7.x86_64
lz4-1.7.5-2.el7.x86_64
lzo-2.06-8.el7.x86_64
m2crypto-0.21.1-17.el7.x86_64
mailcap-2.1.41-2.el7.noarch
make-3.82-23.el7.x86_64
man-db-2.6.3-11.el7.x86_64
mariadb-libs-5.5.60-1.el7_5.x86_64
mesa-libEGL-18.0.5-4.el7_6.x86_64
mesa-libgbm-18.0.5-4.el7_6.x86_64
mesa-libGL-18.0.5-4.el7_6.x86_64
mesa-libglapi-18.0.5-4.el7_6.x86_64
microcode_ctl-2.1-47.2.el7_6.x86_64
mozjs17-17.0.0-20.el7.x86_64
ncurses-5.9-14.20130511.el7_4.x86_64
ncurses-base-5.9-14.20130511.el7_4.noarch
ncurses-libs-5.9-14.20130511.el7_4.x86_64
net-tools-2.0-0.24.20131004git.el7.x86_64
NetworkManager-1.12.0-10.el7_6.x86_64
NetworkManager-libnm-1.12.0-10.el7_6.x86_64
NetworkManager-team-1.12.0-10.el7_6.x86_64
NetworkManager-tui-1.12.0-10.el7_6.x86_64
newt-0.52.15-4.el7.x86_64
newt-python-0.52.15-4.el7.x86_64
nspr-4.19.0-1.el7_5.x86_64
nss-3.36.0-7.1.el7_6.x86_64
nss-pem-1.0.3-5.el7_6.1.x86_64
nss-softokn-3.36.0-5.el7_5.x86_64
nss-softokn-freebl-3.36.0-5.el7_5.x86_64
nss-sysinit-3.36.0-7.1.el7_6.x86_64
nss-tools-3.36.0-7.1.el7_6.x86_64
nss-util-3.36.0-1.1.el7_6.x86_64
ntp-4.2.6p5-28.el7.x86_64
ntpdate-4.2.6p5-28.el7.x86_64
numactl-libs-2.0.9-7.el7.x86_64
openldap-2.4.44-21.el7_6.x86_64
openssh-7.4p1-16.el7.x86_64
openssh-clients-7.4p1-16.el7.x86_64
openssh-server-7.4p1-16.el7.x86_64
openssl-1.0.2k-16.el7_6.1.x86_64
openssl-libs-1.0.2k-16.el7_6.1.x86_64
os-prober-1.58-9.el7.x86_64
p11-kit-0.23.5-3.el7.x86_64
p11-kit-trust-0.23.5-3.el7.x86_64
pam-1.1.8-22.el7.x86_64
pango-1.42.4-2.el7_6.x86_64
parted-3.1-29.el7.x86_64
passwd-0.79-4.el7.x86_64
pciutils-3.5.1-3.el7.x86_64
pciutils-libs-3.5.1-3.el7.x86_64
pcre-8.32-17.el7.x86_64
pcsc-lite-libs-1.8.8-8.el7.x86_64
perl-5.16.3-294.el7_6.x86_64
perl-Business-ISBN-2.06-2.el7.noarch
perl-Business-ISBN-Data-20120719.001-2.el7.noarch
perl-Carp-1.26-244.el7.noarch
perl-Compress-Raw-Bzip2-2.061-3.el7.x86_64
perl-Compress-Raw-Zlib-2.061-4.el7.x86_64
perl-constant-1.27-2.el7.noarch
perl-Data-Dumper-2.145-3.el7.x86_64
perl-Digest-1.17-245.el7.noarch
perl-Digest-MD5-2.52-3.el7.x86_64
perl-Digest-SHA-5.85-4.el7.x86_64
perl-Encode-2.51-7.el7.x86_64
perl-Encode-Locale-1.03-5.el7.noarch
perl-Exporter-5.68-3.el7.noarch
perl-File-Listing-6.04-7.el7.noarch
perl-File-Path-2.09-2.el7.noarch
perl-File-Temp-0.23.01-3.el7.noarch
perl-Filter-1.49-3.el7.x86_64
perl-Getopt-Long-2.40-3.el7.noarch
perl-HTML-Parser-3.71-4.el7.x86_64
perl-HTML-Tagset-3.20-15.el7.noarch
perl-HTTP-Cookies-6.01-5.el7.noarch
perl-HTTP-Daemon-6.01-8.el7.noarch
perl-HTTP-Date-6.02-8.el7.noarch
perl-HTTP-Message-6.06-6.el7.noarch
perl-HTTP-Negotiate-6.01-5.el7.noarch
perl-HTTP-Tiny-0.033-3.el7.noarch
perl-IO-Compress-2.061-2.el7.noarch
perl-IO-HTML-1.00-2.el7.noarch
perl-IO-Socket-IP-0.21-5.el7.noarch
perl-IO-Socket-SSL-1.94-7.el7.noarch
perl-libs-5.16.3-294.el7_6.x86_64
perl-libwww-perl-6.05-2.el7.noarch
perl-LWP-MediaTypes-6.02-2.el7.noarch
perl-LWP-Protocol-https-6.04-4.el7.noarch
perl-macros-5.16.3-294.el7_6.x86_64
perl-Mozilla-CA-20130114-5.el7.noarch
perl-Net-HTTP-6.06-2.el7.noarch
perl-Net-LibIDN-0.12-15.el7.x86_64
perl-Net-SSLeay-1.55-6.el7.x86_64
perl-parent-0.225-244.el7.noarch
perl-PathTools-3.40-5.el7.x86_64
perl-Pod-Escapes-1.04-294.el7_6.noarch
perl-podlators-2.5.1-3.el7.noarch
perl-Pod-Perldoc-3.20-4.el7.noarch
perl-Pod-Simple-3.28-4.el7.noarch
perl-Pod-Usage-1.63-3.el7.noarch
perl-Scalar-List-Utils-1.27-248.el7.x86_64
perl-Socket-2.010-4.el7.x86_64
perl-Storable-2.45-3.el7.x86_64
perl-Switch-2.16-7.el7.noarch
perl-Sys-Syslog-0.33-3.el7.x86_64
perl-Text-ParseWords-3.29-4.el7.noarch
perl-threads-1.87-4.el7.x86_64
perl-threads-shared-1.43-6.el7.x86_64
perl-TimeDate-2.30-2.el7.noarch
perl-Time-HiRes-1.9725-3.el7.x86_64
perl-Time-Local-1.2300-2.el7.noarch
perl-URI-1.60-9.el7.noarch
perl-WWW-RobotRules-6.02-5.el7.noarch
perl-XML-LibXML-2.0018-5.el7.x86_64
perl-XML-NamespaceSupport-1.11-10.el7.noarch
perl-XML-SAX-0.99-9.el7.noarch
perl-XML-SAX-Base-1.08-7.el7.noarch
pinentry-0.8.1-17.el7.x86_64
pixman-0.34.0-1.el7.x86_64
pkgconfig-0.27.1-4.el7.x86_64
policycoreutils-2.5-29.el7_6.1.x86_64
policycoreutils-python-2.5-29.el7_6.1.x86_64
polkit-0.112-18.el7_6.1.x86_64
polkit-pkla-compat-0.1-4.el7.x86_64
popt-1.13-16.el7.x86_64
postfix-2.10.1-7.el7.x86_64
procps-ng-3.3.10-23.el7.x86_64
pth-2.0.7-23.el7.x86_64
pygobject2-2.28.6-11.el7.x86_64
pygpgme-0.3-9.el7.x86_64
pyliblzma-0.5.3-11.el7.x86_64
pyOpenSSL-0.13.1-4.el7.x86_64
pyserial-2.6-6.el7.noarch
pystache-0.5.3-2.el7.noarch
python-2.7.5-77.el7_6.x86_64
python2-simplejson-3.10.0-2.el7.x86_64
python36-3.6.8-1.el7.x86_64
python36-libs-3.6.8-1.el7.x86_64
python-babel-0.9.6-8.el7.noarch
python-backports-1.0-8.el7.x86_64
python-backports-ssl_match_hostname-3.5.0.1-1.el7.noarch
python-chardet-2.2.1-1.el7_1.noarch
python-configobj-4.7.2-7.el7.noarch
python-daemon-1.6-4.el7.noarch
python-dateutil-1.5-7.el7.noarch
python-decorator-3.4.0-3.el7.noarch
python-dmidecode-3.12.2-3.el7.x86_64
python-ethtool-0.8-7.el7.x86_64
python-firewall-0.5.3-5.el7.noarch
python-gobject-base-3.22.0-1.el7_4.1.x86_64
python-gudev-147.2-7.el7.x86_64
python-hwdata-1.7.3-4.el7.noarch
python-iniparse-0.4-9.el7.noarch
python-inotify-0.9.4-4.el7.noarch
python-ipaddress-1.0.16-2.el7.noarch
python-IPy-0.75-6.el7.noarch
python-javapackages-3.4.1-11.el7.noarch
python-jinja2-2.7.2-3.el7_6.noarch
python-jsonpatch-1.2-4.el7.noarch
python-jsonpointer-1.9-2.el7.noarch
python-kitchen-1.1.1-5.el7.noarch
python-libs-2.7.5-77.el7_6.x86_64
python-linux-procfs-0.4.9-4.el7.noarch
python-lockfile-0.9.1-4.el7.noarch
python-lxml-3.2.1-4.el7.x86_64
python-magic-5.11-35.el7.noarch
python-markupsafe-0.11-10.el7.x86_64
python-perf-3.10.0-957.12.2.el7.x86_64
python-prettytable-0.7.2-3.el7.noarch
python-pycurl-7.19.0-19.el7.x86_64
python-pyudev-0.15-9.el7.noarch
python-requests-2.6.0-1.el7_1.noarch
python-schedutils-0.4-6.el7.x86_64
python-setuptools-0.9.8-7.el7.noarch
python-six-1.9.0-2.el7.noarch
python-slip-0.4.0-4.el7.noarch
python-slip-dbus-0.4.0-4.el7.noarch
python-urlgrabber-3.10-9.el7.noarch
python-urllib3-1.10.2-5.el7.noarch
pyxattr-0.5.1-5.el7.x86_64
PyYAML-3.10-11.el7.x86_64
qrencode-libs-3.4.1-3.el7.x86_64
rdma-core-17.2-3.el7.x86_64
readline-6.2-10.el7.x86_64
Red_Hat_Enterprise_Linux-Release_Notes-7-en-US-7-2.el7.noarch
redhat-release-server-7.6-4.el7.x86_64
redhat-support-lib-python-0.9.7-6.el7.noarch
redhat-support-tool-0.9.10-1.el7.noarch
rh-amazon-rhui-client-2.2.147-1.el7.noarch
rhn-check-2.0.2-24.el7.x86_64
rhn-client-tools-2.0.2-24.el7.x86_64
rhnlib-2.5.65-8.el7.noarch
rhnsd-5.0.13-10.el7.x86_64
rhn-setup-2.0.2-24.el7.x86_64
rootfiles-8.1-11.el7.noarch
rpm-4.11.3-35.el7.x86_64
rpm-build-libs-4.11.3-35.el7.x86_64
rpm-libs-4.11.3-35.el7.x86_64
rpm-python-4.11.3-35.el7.x86_64
rsync-3.1.2-6.el7_6.1.x86_64
rsyslog-8.24.0-34.el7.x86_64
ruby-2.0.0.648-35.el7_6.x86_64
rubygem-bigdecimal-1.2.0-35.el7_6.x86_64
rubygem-io-console-0.4.2-35.el7_6.x86_64
rubygem-json-1.7.7-35.el7_6.x86_64
rubygem-psych-2.0.0-35.el7_6.x86_64
rubygem-rdoc-4.0.0-35.el7_6.noarch
rubygems-2.0.14.1-35.el7_6.noarch
ruby-irb-2.0.0.648-35.el7_6.noarch
ruby-libs-2.0.0.648-35.el7_6.x86_64
sed-4.2.2-5.el7.x86_64
selinux-policy-3.13.1-229.el7_6.12.noarch
selinux-policy-targeted-3.13.1-229.el7_6.12.noarch
setools-libs-3.3.8-4.el7.x86_64
setup-2.8.71-10.el7.noarch
sg3_utils-1.37-17.el7.x86_64
sg3_utils-libs-1.37-17.el7.x86_64
shadow-utils-4.1.5.1-25.el7_6.1.x86_64
shared-mime-info-1.8-4.el7.x86_64
slang-2.2.4-11.el7.x86_64
snappy-1.1.0-3.el7.x86_64
sqlite-3.7.17-8.el7.x86_64
subscription-manager-1.21.10-3.el7_6.x86_64
subscription-manager-rhsm-1.21.10-3.el7_6.x86_64
subscription-manager-rhsm-certificates-1.21.10-3.el7_6.x86_64
sudo-1.8.23-3.el7.x86_64
systemd-219-62.el7_6.6.x86_64
systemd-libs-219-62.el7_6.6.x86_64
systemd-sysv-219-62.el7_6.6.x86_64
sysvinit-tools-2.88-14.dsf.el7.x86_64
tar-1.26-35.el7.x86_64
tcp_wrappers-libs-7.6-77.el7.x86_64
teamd-1.27-5.el7.x86_64
ttmkfdir-3.0.9-42.el7.x86_64
tuned-2.10.0-6.el7_6.3.noarch
tzdata-2019a-1.el7.noarch
tzdata-java-2019a-1.el7.noarch
usermode-1.111-5.el7.x86_64
ustr-1.0.4-16.el7.x86_64
util-linux-2.23.2-59.el7_6.1.x86_64
vim-common-7.4.160-5.el7.x86_64
vim-filesystem-7.4.160-5.el7.x86_64
vim-minimal-7.4.160-5.el7.x86_64
virt-what-1.18-4.el7.x86_64
wget-1.14-18.el7_6.1.x86_64
which-2.20-7.el7.x86_64
wpa_supplicant-2.6-12.el7.x86_64
xdg-utils-1.1.0-0.17.20120809git.el7.noarch
xfsprogs-4.5.0-19.el7_6.x86_64
xorg-x11-fonts-Type1-7.5-9.el7.noarch
xorg-x11-font-utils-7.5-21.el7.x86_64
xz-5.2.2-1.el7.x86_64
xz-libs-5.2.2-1.el7.x86_64
yum-3.4.3-161.el7.noarch
yum-metadata-parser-1.1.4-10.el7.x86_64
yum-rhn-plugin-2.0.1-10.el7.noarch
yum-utils-1.1.31-50.el7.noarch
zlib-1.2.7-18.el7.x86_64
