acl-2.2.51-14.el7.x86_64
audit-2.8.4-4.el7.x86_64
audit-libs-2.8.4-4.el7.x86_64
authconfig-6.2.8-30.el7.x86_64
autogen-libopts-5.18-5.el7.x86_64
basesystem-10.0-7.el7.centos.noarch
bash-4.2.46-31.el7.x86_64
bind-libs-lite-9.9.4-73.el7_6.x86_64
bind-license-9.9.4-73.el7_6.noarch
binutils-2.27-34.base.el7.x86_64
btrfs-progs-4.9.1-1.el7.x86_64
bzip2-libs-1.0.6-13.el7.x86_64
ca-certificates-2018.2.22-70.0.el7_5.noarch
centos-release-7-6.1810.2.el7.centos.x86_64
chkconfig-1.7.4-1.el7.x86_64
chrony-3.2-2.el7.x86_64
coreutils-8.22-23.el7.x86_64
cpio-2.11-27.el7.x86_64
cracklib-2.9.0-11.el7.x86_64
cracklib-dicts-2.9.0-11.el7.x86_64
cronie-1.4.11-20.el7_6.x86_64
cronie-anacron-1.4.11-20.el7_6.x86_64
crontabs-1.11-6.20121102git.el7.noarch
cryptsetup-libs-2.0.3-3.el7.x86_64
curl-7.29.0-51.el7.x86_64
cyrus-sasl-lib-2.1.26-23.el7.x86_64
dbus-1.10.24-13.el7_6.x86_64
dbus-glib-0.100-7.el7.x86_64
dbus-libs-1.10.24-13.el7_6.x86_64
dbus-python-1.1.1-9.el7.x86_64
device-mapper-1.02.149-10.el7_6.7.x86_64
device-mapper-event-1.02.149-10.el7_6.7.x86_64
device-mapper-event-libs-1.02.149-10.el7_6.7.x86_64
device-mapper-libs-1.02.149-10.el7_6.7.x86_64
device-mapper-persistent-data-0.7.3-3.el7.x86_64
dhclient-4.2.5-68.el7.centos.1.x86_64
dhcp-common-4.2.5-68.el7.centos.1.x86_64
dhcp-libs-4.2.5-68.el7.centos.1.x86_64
diffutils-3.3-4.el7.x86_64
dracut-033-554.el7.x86_64
dracut-config-generic-033-554.el7.x86_64
dracut-config-rescue-033-554.el7.x86_64
dracut-fips-033-554.el7.x86_64
dracut-network-033-554.el7.x86_64
e2fsprogs-1.42.9-13.el7.x86_64
e2fsprogs-libs-1.42.9-13.el7.x86_64
ebtables-2.0.10-16.el7.x86_64
elfutils-default-yama-scope-0.172-2.el7.noarch
elfutils-libelf-0.172-2.el7.x86_64
elfutils-libs-0.172-2.el7.x86_64
epel-release-7-11.noarch
ethtool-4.8-9.el7.x86_64
expat-2.1.0-10.el7_3.x86_64
file-5.11-35.el7.x86_64
file-libs-5.11-35.el7.x86_64
filesystem-3.2-25.el7.x86_64
findutils-4.5.11-6.el7.x86_64
fipscheck-1.4.1-6.el7.x86_64
fipscheck-lib-1.4.1-6.el7.x86_64
firewalld-0.5.3-5.el7.noarch
firewalld-filesystem-0.5.3-5.el7.noarch
freetype-2.8-12.el7_6.1.x86_64
gawk-4.0.2-4.el7_3.1.x86_64
gdbm-1.10-8.el7.x86_64
gdisk-0.8.10-2.el7.x86_64
GeoIP-1.5.0-13.el7.x86_64
gettext-0.19.8.1-2.el7.x86_64
gettext-libs-0.19.8.1-2.el7.x86_64
glib2-2.56.1-2.el7.x86_64
glibc-2.17-260.el7_6.5.x86_64
glibc-common-2.17-260.el7_6.5.x86_64
gmp-6.0.0-15.el7.x86_64
gnupg2-2.0.22-5.el7_5.x86_64
gobject-introspection-1.56.1-1.el7.x86_64
gpgme-1.3.2-5.el7.x86_64
gpg-pubkey-352c64e5-52ae6884
gpg-pubkey-f4a80eb5-53a7ff4b
grep-2.20-3.el7.x86_64
groff-base-1.22.2-8.el7.x86_64
grub2-2.02-0.76.el7.centos.1.x86_64
grub2-common-2.02-0.76.el7.centos.1.noarch
grub2-pc-2.02-0.76.el7.centos.1.x86_64
grub2-pc-modules-2.02-0.76.el7.centos.1.noarch
grub2-tools-2.02-0.76.el7.centos.1.x86_64
grub2-tools-extra-2.02-0.76.el7.centos.1.x86_64
grub2-tools-minimal-2.02-0.76.el7.centos.1.x86_64
grubby-8.28-25.el7.x86_64
gzip-1.5-10.el7.x86_64
hardlink-1.0-19.el7.x86_64
hmaccalc-0.9.13-4.el7.x86_64
hostname-3.13-3.el7.x86_64
hwdata-0.252-9.1.el7.x86_64
info-5.1-5.el7.x86_64
initscripts-9.49.46-1.el7.x86_64
iproute-4.11.0-14.el7_6.2.x86_64
ipset-6.38-3.el7_6.x86_64
ipset-libs-6.38-3.el7_6.x86_64
iptables-1.4.21-28.el7.x86_64
iptables-services-1.4.21-28.el7.x86_64
iptables-utils-1.4.21-28.el7.x86_64
iputils-20160308-10.el7.x86_64
irqbalance-1.0.7-11.el7.x86_64
iwl7265-firmware-22.0.7.0-69.el7.noarch
jansson-2.10-1.el7.x86_64
json-c-0.11-4.el7_0.x86_64
kbd-1.15.5-15.el7.x86_64
kbd-legacy-1.15.5-15.el7.noarch
kbd-misc-1.15.5-15.el7.noarch
kernel-3.10.0-957.12.2.el7.x86_64
kernel-tools-3.10.0-957.12.2.el7.x86_64
kernel-tools-libs-3.10.0-957.12.2.el7.x86_64
kexec-tools-2.0.15-21.el7_6.3.x86_64
keyutils-libs-1.5.8-3.el7.x86_64
kmod-20-23.el7.x86_64
kmod-libs-20-23.el7.x86_64
kpartx-0.4.9-123.el7.x86_64
krb5-libs-1.15.1-37.el7_6.x86_64
less-458-9.el7.x86_64
libacl-2.2.51-14.el7.x86_64
libaio-0.3.109-13.el7.x86_64
libassuan-2.1.0-3.el7.x86_64
libattr-2.4.46-13.el7.x86_64
libblkid-2.23.2-59.el7_6.1.x86_64
libcap-2.22-9.el7.x86_64
libcap-ng-0.7.5-4.el7.x86_64
libcom_err-1.42.9-13.el7.x86_64
libcroco-0.6.12-4.el7.x86_64
libcurl-7.29.0-51.el7.x86_64
libdaemon-0.14-7.el7.x86_64
libdb-5.3.21-24.el7.x86_64
libdb-utils-5.3.21-24.el7.x86_64
libedit-3.0-12.20121213cvs.el7.x86_64
libestr-0.1.9-2.el7.x86_64
libfastjson-0.99.4-3.el7.x86_64
libffi-3.0.13-18.el7.x86_64
libgcc-4.8.5-36.el7_6.2.x86_64
libgcrypt-1.5.3-14.el7.x86_64
libgomp-4.8.5-36.el7_6.2.x86_64
libgpg-error-1.12-3.el7.x86_64
libidn-1.28-4.el7.x86_64
libmnl-1.0.3-7.el7.x86_64
libmount-2.23.2-59.el7_6.1.x86_64
libndp-1.2-7.el7.x86_64
libnetfilter_conntrack-1.0.6-1.el7_3.x86_64
libnfnetlink-1.0.1-4.el7.x86_64
libnl3-3.2.28-4.el7.x86_64
libnl3-cli-3.2.28-4.el7.x86_64
libpipeline-1.2.3-3.el7.x86_64
libpng-1.5.13-7.el7_2.x86_64
libpwquality-1.2.3-5.el7.x86_64
libseccomp-2.3.1-3.el7.x86_64
libselinux-2.5-14.1.el7.x86_64
libselinux-python-2.5-14.1.el7.x86_64
libselinux-utils-2.5-14.1.el7.x86_64
libsemanage-2.5-14.el7.x86_64
libsepol-2.5-10.el7.x86_64
libsmartcols-2.23.2-59.el7_6.1.x86_64
libss-1.42.9-13.el7.x86_64
libssh2-1.4.3-12.el7_6.2.x86_64
libstdc++-4.8.5-36.el7_6.2.x86_64
libsysfs-2.1.0-16.el7.x86_64
libtasn1-4.10-1.el7.x86_64
libteam-1.27-5.el7.x86_64
libunistring-0.9.3-9.el7.x86_64
libuser-0.60-9.el7.x86_64
libutempter-1.1.6-4.el7.x86_64
libuuid-2.23.2-59.el7_6.1.x86_64
libverto-0.2.5-4.el7.x86_64
libxml2-2.9.1-6.el7_2.3.x86_64
libxml2-python-2.9.1-6.el7_2.3.x86_64
linux-firmware-20180911-69.git85c5d90.el7.noarch
logrotate-3.8.6-17.el7.x86_64
lshw-B.02.18-12.el7.x86_64
lua-5.1.4-15.el7.x86_64
lvm2-2.02.180-10.el7_6.7.x86_64
lvm2-libs-2.02.180-10.el7_6.7.x86_64
lz4-1.7.5-2.el7.x86_64
lzo-2.06-8.el7.x86_64
make-3.82-23.el7.x86_64
man-db-2.6.3-11.el7.x86_64
mariadb-libs-5.5.60-1.el7_5.x86_64
microcode_ctl-2.1-47.2.el7_6.x86_64
mozjs17-17.0.0-20.el7.x86_64
ncurses-5.9-14.20130511.el7_4.x86_64
ncurses-base-5.9-14.20130511.el7_4.noarch
ncurses-libs-5.9-14.20130511.el7_4.x86_64
NetworkManager-1.12.0-10.el7_6.x86_64
NetworkManager-libnm-1.12.0-10.el7_6.x86_64
NetworkManager-team-1.12.0-10.el7_6.x86_64
NetworkManager-tui-1.12.0-10.el7_6.x86_64
NetworkManager-wifi-1.12.0-10.el7_6.x86_64
newt-0.52.15-4.el7.x86_64
newt-python-0.52.15-4.el7.x86_64
nspr-4.19.0-1.el7_5.x86_64
nss-3.36.0-7.1.el7_6.x86_64
nss-pem-1.0.3-5.el7_6.1.x86_64
nss-softokn-3.36.0-5.el7_5.x86_64
nss-softokn-freebl-3.36.0-5.el7_5.x86_64
nss-sysinit-3.36.0-7.1.el7_6.x86_64
nss-tools-3.36.0-7.1.el7_6.x86_64
nss-util-3.36.0-1.1.el7_6.x86_64
ntp-4.2.6p5-28.el7.centos.x86_64
ntpdate-4.2.6p5-28.el7.centos.x86_64
numactl-libs-2.0.9-7.el7.x86_64
openldap-2.4.44-21.el7_6.x86_64
openssh-7.4p1-16.el7.x86_64
openssh-clients-7.4p1-16.el7.x86_64
openssh-server-7.4p1-16.el7.x86_64
openssl-1.0.2k-16.el7_6.1.x86_64
openssl-libs-1.0.2k-16.el7_6.1.x86_64
os-prober-1.58-9.el7.x86_64
p11-kit-0.23.5-3.el7.x86_64
p11-kit-trust-0.23.5-3.el7.x86_64
pam-1.1.8-22.el7.x86_64
parted-3.1-29.el7.x86_64
passwd-0.79-4.el7.x86_64
pciutils-libs-3.5.1-3.el7.x86_64
pcre-8.32-17.el7.x86_64
pinentry-0.8.1-17.el7.x86_64
pkgconfig-0.27.1-4.el7.x86_64
policycoreutils-2.5-29.el7_6.1.x86_64
polkit-0.112-18.el7_6.1.x86_64
polkit-pkla-compat-0.1-4.el7.x86_64
popt-1.13-16.el7.x86_64
postfix-2.10.1-7.el7.x86_64
procps-ng-3.3.10-23.el7.x86_64
pth-2.0.7-23.el7.x86_64
pygpgme-0.3-9.el7.x86_64
pyliblzma-0.5.3-11.el7.x86_64
python-2.7.5-77.el7_6.x86_64
python36-3.6.8-1.el7.x86_64
python36-libs-3.6.8-1.el7.x86_64
python-chardet-2.2.1-1.el7_1.noarch
python-decorator-3.4.0-3.el7.noarch
python-firewall-0.5.3-5.el7.noarch
python-gobject-base-3.22.0-1.el7_4.1.x86_64
python-iniparse-0.4-9.el7.noarch
python-kitchen-1.1.1-5.el7.noarch
python-libs-2.7.5-77.el7_6.x86_64
python-pycurl-7.19.0-19.el7.x86_64
python-slip-0.4.0-4.el7.noarch
python-slip-dbus-0.4.0-4.el7.noarch
python-urlgrabber-3.10-9.el7.noarch
pyxattr-0.5.1-5.el7.x86_64
qemu-guest-agent-2.12.0-2.el7.x86_64
qrencode-libs-3.4.1-3.el7.x86_64
readline-6.2-10.el7.x86_64
rootfiles-8.1-11.el7.noarch
rpm-4.11.3-35.el7.x86_64
rpm-build-libs-4.11.3-35.el7.x86_64
rpm-libs-4.11.3-35.el7.x86_64
rpm-python-4.11.3-35.el7.x86_64
rsync-3.1.2-6.el7_6.1.x86_64
rsyslog-8.24.0-34.el7.x86_64
sed-4.2.2-5.el7.x86_64
selinux-policy-3.13.1-229.el7_6.12.noarch
selinux-policy-targeted-3.13.1-229.el7_6.12.noarch
setup-2.8.71-10.el7.noarch
sg3_utils-1.37-17.el7.x86_64
sg3_utils-libs-1.37-17.el7.x86_64
shadow-utils-4.1.5.1-25.el7_6.1.x86_64
shared-mime-info-1.8-4.el7.x86_64
slang-2.2.4-11.el7.x86_64
snappy-1.1.0-3.el7.x86_64
sqlite-3.7.17-8.el7.x86_64
sudo-1.8.23-3.el7.x86_64
systemd-219-62.el7_6.6.x86_64
systemd-libs-219-62.el7_6.6.x86_64
systemd-sysv-219-62.el7_6.6.x86_64
sysvinit-tools-2.88-14.dsf.el7.x86_64
tar-1.26-35.el7.x86_64
tcp_wrappers-libs-7.6-77.el7.x86_64
teamd-1.27-5.el7.x86_64
tzdata-2019a-1.el7.noarch
unzip-6.0-19.el7.x86_64
ustr-1.0.4-16.el7.x86_64
util-linux-2.23.2-59.el7_6.1.x86_64
vim-common-7.4.160-5.el7.x86_64
vim-filesystem-7.4.160-5.el7.x86_64
vim-minimal-7.4.160-5.el7.x86_64
wget-1.14-18.el7_6.1.x86_64
which-2.20-7.el7.x86_64
wpa_supplicant-2.6-12.el7.x86_64
xfsprogs-4.5.0-19.el7_6.x86_64
xz-5.2.2-1.el7.x86_64
xz-libs-5.2.2-1.el7.x86_64
yum-3.4.3-161.el7.centos.noarch
yum-metadata-parser-1.1.4-10.el7.x86_64
yum-plugin-fastestmirror-1.1.31-50.el7.noarch
yum-utils-1.1.31-50.el7.noarch
zlib-1.2.7-18.el7.x86_64
